/* XPM */
static char * barco4h_t_xpm[] = {
"80 20 8 1",
" 	c None",
".	c #FF0000",
"+	c #000000",
"@	c #00FF00",
"#	c #008000",
"$	c #808080",
"%	c #FFFFFF",
"&	c #0000FF",
"..++.......................................................+...................+",
"....+++...............................................+.....+.++++++++++++++...+",
"....++.................................................+.....+@@@@@@@@@@@@@+...+",
"....++.................................................+.....+@@@@@@@@@@@@@+...+",
"....+.+.................................................+..++++++++++@@+@@@+...+",
"...................+..+++......+...++........+.+++.......+++@@@@@@@++++++++++..+",
"................++++++++.....+++++++......+++++++........++@@+@@@++@@@@@@@@@+..+",
"...................+...........+.............+..........+++@@+@@@++@@@+@@@@@++++",
"...................+...........+.............+..........+++@@+@@@++@@@+@@@@@++++",
"++++++++++++++++++++++++++++++++++++++++++++++++++++++++++++++++++++++++++++++++",
"++++++++++++++++++++++++++++++++++++++++++++++++++++++++++++++++++++++++++++++++",
".++++##############$$##############$$#################$$##############$$#######+",
".....++++########$$++%############$++%%#############$$++%############$++%%#####+",
".....++++########$$++%############$++%%#############$$++%############$++%%#####+",
".......+++######$+++++%%########$$+++++%%##########$+++++%%########$$+++++%##+++",
"..........++++###$$++%############$++%%#############$$++%############$++%%##++++",
"&&&&&&&&&&&+++++&&&%%&&&&&&&&&&&&&&%%&&&&&&&&&&&&&&&&&%%&&&&&&&&&&&&&&%%&&&&+&&+",
"&&&&&&&&&&&&&&&+++++&&&&&&&&&&&&&&&&&&&&&&&&&&&&&&&&&&&&&&&&&&&&&&&&&&&&++++&&&+",
"&&&&&&&&&&&&&&&+++++&&&&&&&&&&&&&&&&&&&&&&&&&&&&&&&&&&&&&&&&&&&&&&&&&&&&++++&&&+",
"&&&&&&&&&&&&&&&&&&&+++&&&+&&&&&+&&&&&&&++&&&&&+&&&&+&&&&+&&&&&&&+&&&&&&+++&&&&&+"};
