/* XPM */
static char * barco1_h_xpm[] = {
"20 20 26 1",
" 	c None",
".	c #00FFFF",
"+	c #000000",
"@	c #041E24",
"#	c #042607",
"$	c #043604",
"%	c #042644",
"&	c #042E4C",
"*	c #042E07",
"=	c #00FF10",
"-	c #04223C",
";	c #042E34",
">	c #043224",
",	c #042224",
"'	c #041A04",
")	c #043444",
"!	c #04120C",
"~	c #041A34",
"{	c #041644",
"]	c #0C0208",
"^	c #041604",
"/	c #04021C",
"(	c #1C0208",
"_	c #340204",
":	c #8E5E05",
"<	c #0000FF",
"....................",
"++++..........@.....",
"++++++++.....#$+++++",
"+++++++++...++++++++",
"..++++++++.+++++++++",
".....+++++++++++++..",
"..%&...+++++++*===+.",
"...-;...+++++=*===>.",
"....,@.++++++='===).",
".....!~++++++=!===+.",
"...{]]++++++++^++++.",
"../(_++++++++++.....",
".:::+++++::++++:::::",
"...:+++++::++++:::::",
"<<<++++:::::++++::::",
"<<<++++:::::++++:::<",
"<<<+++<<<<:::+++::<<",
"<<<+++<<<<<<<<<<<<<<",
"<<<<<<<<<<<<<<<<<<<<",
"<<<<<<<<<<<<<<<<<<<<"};
