/* XPM */
static char * icono_xpm[] = {
"48 48 7 1",
" 	c None",
".	c #21BC2C",
"+	c #F9ED04",
"@	c #000000",
"#	c #BF5911",
"$	c #1CA5CC",
"%	c #1D31E2",
"                                                ",
"                                                ",
"                                                ",
"                                                ",
"                                                ",
"                                                ",
"                     .                          ",
"                                                ",
"                     +.                         ",
"                    ++..                        ",
"                    ++...                       ",
"                    ++....                      ",
"                    ++ ...                      ",
"                  ..++ ....                     ",
"                 ...++ .....                    ",
"              ......++ ......                   ",
"             .......++ .......                  ",
"            ........++ ........                 ",
"            ........++ ........                 ",
"           .........++ ........                 ",
"          ......... ++ .......                  ",
"          ......... ++ .....                    ",
"         .......... ++ ..                       ",
"        ........... ++              @           ",
"        ..          ++        @@  @             ",
"                    ++       @ @ @@             ",
"                    ++      @@@@@@              ",
"                    +       @@@@#               ",
"          ##########+############               ",
"          ######################                ",
"          ######################                ",
"          ######################                ",
"           ####################   $             ",
"           ####################  $  %%          ",
"     $$ $$  ###################$$   $ $ $       ",
"     $  $    #################  %%%$ $ %        ",
"         $ $$ ###############         % %       ",
"         $$    ############%%         %  %      ",
"       %%    % %#%######$##$    $%$       %     ",
"         %%   $  #%####$$$$     %%%$  $    %    ",
"        $   $$  $$$   $           %$%$$$        ",
"      $$ %%%%                     $%%$          ",
"                      $$$$     $                ",
"                                                ",
"                                                ",
"                                                ",
"                                                ",
"                                                "};
