/* XPM */
static char * random_xpm[] = {
"18 18 23 1",
" 	c None",
".	c #000000",
"+	c #F0FC05",
"@	c #21BB2C",
"#	c #2FC039",
"$	c #20BA2B",
"%	c #20BB2B",
"&	c #21BC2C",
"*	c #1FBA2A",
"=	c #28BE33",
"-	c #23BC2D",
";	c #36312E",
">	c #020202",
",	c #BE5810",
"'	c #BD570F",
")	c #BD580F",
"!	c #BF5911",
"~	c #BF5A13",
"{	c #BF5810",
"]	c #B8682B",
"^	c #4126EF",
"/	c #BE5911",
"(	c #BC5C1B",
"  .           .   ",
"  .           .   ",
"..................",
"  .    +@     .   ",
"  .    +@@    .   ",
"  .   #+@@@   .   ",
"  .  $%+@&&@  .   ",
"  . @*=+@&-@  .   ",
"  .@*@@+@@@@  .   ",
"  .@@@@+     ;.   ",
"  .    +   >; .   ",
"  .,,,,,,,,,, .   ",
"  .,'),,!!!,  .   ",
"  . ~',{!!!]  .   ",
"  .^,/,,!!(^^^.   ",
"  .^^^,,,,^^^^.   ",
"..................",
"  .           .   "};
