/* XPM */
static char *rojo_xpm[] = {
/* columns rows colors chars-per-pixel */
"20 20 34 1",
"  c Gray0",
". c #0c0208",
"X c #0c0e04",
"o c #04021c",
"O c #040a1c",
"+ c #04120c",
"@ c #1c0208",
"# c #041e24",
"$ c #041a34",
"% c #042607",
"& c #042a04",
"* c #042e07",
"= c #042e14",
"- c #043604",
"; c #043a04",
": c #043514",
"> c #042224",
", c #04223c",
"< c #042e34",
"1 c #043224",
"2 c #340204",
"3 c #041644",
"4 c #042644",
"5 c #042e4c",
"6 c #043444",
"7 c #040acc",
"8 c #2b25d1",
"9 c #00ff10",
"0 c #249ebc",
"q c #04defc",
"w c #8e5e05",
"e c #8e5e0a",
"r c Red",
"t c #d4fefc",
/* pixels */
"rrrqqqqqqqqqqqqqqrrr",
"rrrrqqqqqqqqqq#qqrrr",
"rrrrrqqqqqqqq%-qrrrr",
"rrrrrrqqqqqq:9* rrrr",
"qqrrrrrqqqq=99&9rrrq",
"qqqrrrrrrq 999;rrrrq",
"qq45rrrrrq 999*rrrrq",
"qqq,<rrrrr9999rrrr1q",
"qqqq>#rrrrr99rrrrr6q",
"qqq0t+$rrrrrrrrrr9 q",
"qqq3..Oqrrrrrrrr   q",
"qqo@2@Xqqrrrrrrqqqqq",
"qwwwwwwwwrrrrrrrwwww",
"qqqwwwwrrrrrrrrrwwww",
"7787errrrrrrrrrrrwww",
"87rrrrrrrrrwwrrrrrr8",
"87rrrrrrr7wwwwrrrrr8",
"87rrrrr88777777rrrr8",
"8777778888888888rrr8",
"88887788888888888888"
};
