/* XPM */
static char * winner_xpm[] = {
"200 200 15 1",
" 	c None",
".	c #FFFFFF",
"+	c #E3E3E3",
"@	c #AAAAAA",
"#	c #555555",
"$	c #8E8E8E",
"%	c #C7C7C7",
"&	c #1D1D1D",
"*	c #000000",
"=	c #393939",
"-	c #727272",
";	c #FFFF00",
">	c #00FF00",
",	c #7F0000",
"'	c #0000FF",
"........................................................................................................................................................................................................",
"........................................................................................................................................................................................................",
"........................................................................................................................................................................................................",
"........................................................................................................................................................................................................",
"........................................................................................................................................................................................................",
"........................................................................................................................................................................................................",
"........................................................................................................................................................................................................",
"........................................................................................................................................................................................................",
"........................................................................................................................................................................................................",
"........................................................................................................................................................................................................",
"........................................................................................................................................................................................................",
"........................................................................................................................................................................................................",
"........................................................................................................................................................................................................",
"........................................................................................................................................................................................................",
"...............................................................................................................+@#$.....................................................................................",
".............................................................................................................%&***#...........................=*#.......................................................",
"............+-=****=-+.......................................................................................+-=**@..........................@***.........................................+=*#..........",
"...........-**&-@@=**+.........................................................................................#**@..........................%**=.........................................-***..........",
".........+&**$.....**....................................................................$*@...................=**...................$*@......+@..........................................#**&..........",
".........=**@......*=...................................................................+**%...................**&..................+**%..................................................#**-..........",
"........$**=.......#$.....@##-+......+$#..+-#@......+$##-@......+$%.+#-+....%-##$%--...+=**.......@%.....@%...+**#......%-##$%--...+=**......@-#......+$##$.......%-$..%##+......$##$.....***%..........",
".......+***%............@&*#=**@...$=***.-****%....$**==*****$-&**@@***-..+#**==***#..$*******$-=**-...+**#...@**-....+#**==***#..$*******-&***#.....-*&#&*&+..+-&**#+=***&....+&&#&*=....***...........",
".......$**=............@**@..#**%..@-**===@&**#...$**#..=**$@%@=**%&-**#..&*&%..=**$..%-**=@@@%@#**@...@**$...-**@....&*&%..=**$..%-**=@@@%@#**-....#*&+.+&*&..+@=**#&-$***@...&*+.$**....**#...........",
".......#**#...........+**-...%**#...%***@..@**#...***+..#**@...#**=+.&&+.#**%...-**@...$**$.....-**%...-**@...#**+...#**%...-**@...$**$.....-**@...$**%...-**@...-**&+..#**@..%**@..#@....**@...........",
".......***@...........-**+....***...@**$...@**$..@**#...=**@...=**%..%..%**#....#**....#**@.....#**....#**....***...%**#....#**....#**@.....#**%...&*=....@**#...#**+...#**+..@***@.......**............",
".......***@...........***.....***...#**@...$**%..@**#..+**&....**=......-**@....&**....&**......**=....**&....**=...-**@....&**....&**......***...@**#....@**#...***....=*&...+&***#.....+*#............",
".......***@..........@**#.....***...#**+...#**...+**=..#**@...%**$......&**.....**#....***......**#...+**#...@**#...&**.....**#....***.....+**=...#**@....@**#...**=....**#....+&***&....@*@............",
".......&**$......+@+.@**#....@**#...***....**=....@**==**@....@**@......***....%**-...@**#.....@**@...@**$...$**@...***....%**-...@**#.....@**#...#**@....#**@..@**#...@**$......#***$...%#.............",
".......-**=......$*@.@**#....-**@..+**#...+**#.....+&&#@+.....-**%......***....@**@...$**-.....$**@...-**@...#**@...***....@**@...$**-.....-**$...#**@....&**...$**@...$**@..+@+..#**#..................",
".......+***%.....&*...**=...+&*=...@**#...@**@.....%*-+.......#**.......&**$...=**@...#**@.....#**@..+&**+...=**....&**$...=**@...#**@.....#**@...@**$...@**$...#**@...#**...&*=..@**-..@**@............",
"........@**&@...@**...-**%..#*&+...-**@...-**-.+...#***-+.....***.......-***--&&**$.+.#**#..@..#**&@#&=**$.+.***%.%.-***--&&**$.+.#**#..@..=**#%@..&*&..+&*#....&**....&**%.+&*-..-*&+..***#............",
".........@&**&#=**#...+=**#&*=+....#**@...$****&.%=&&****-+..+**#.......+&***&@$****-.@***&*#..%****-+#****$.&***&=.+&***&@$****-.@***&*#..#****=..@&*&#**-.....***....=****-@**#&*&+...&**@............",
"...........@###-@+......%-#$%......@@@.....@@@+.@**+.%=***&..+@@%.........@#@...@@@....%-@%.....%--%..+--@...+$-@+....@#@...@@@....%-@%....+@$@+.....@##@+.....+@@%....+@@@...+@#$%.....+$%.............",
"...............................................+**#....@***@............................................................................................................................................",
"...............................................@**=.....#**%............................................................................................................................................",
"...............................................+***@...+**#.............................................................................................................................................",
"................................................@&**=#=*&$..............................................................................................................................................",
"..................................................@###-@................................................................................................................................................",
"........................................................................................................................................................................................................",
"........................................................................................................................................................................................................",
"........................................................................................................................................................................................................",
"........................................................................................................................................................................................................",
"........................................................................................................................................................................................................",
"........................................................................................................................................................................................................",
"........................................................................................................................................................................................................",
"........................................................................................................................................................................................................",
"........................................................................................................................................................................................................",
"........................................................................................................................................................................................................",
"........................................................................................................................................................................................................",
"........................................................................................................................................................................................................",
"........................................................................................................................................................................................................",
"........................................................................................................................................................................................................",
"........................................................................................................................................................................................................",
"........................................................................................................................................................................................................",
"........................................................................................................................................................................................................",
"........................................................................................................................................................................................................",
"........................................................................................................................................................................................................",
"...........................................................................................;;>>>........................................................................................................",
".......................................................................................>>>.;;..>>.......................................................................................................",
".....................................................................................>>>>>.;;>>>>>......................................................................................................",
".....................................................................................>>>>>.;;.>>>>>.....................................................................................................",
"...................................................................................>>>>>>>;;;.>>>>>.....................................................................................................",
".................................................................................>>>>>>>>>;;;.>>>>>>....................................................................................................",
".................................................................................>>>>>>>>>;;;.>>>>>>....................................................................................................",
"...............................................................................>>>>>>>>>>>;;;.>>>>>>>...................................................................................................",
"...............................................................................>>>>>>>>>>>;;;.>>>>>>>>..................................................................................................",
"..............................................................................>>>>>>>>>>>>;;;.>>>>>>>>>.................................................................................................",
".............................................................................>>>>>>>>>>>>>;;;.>>>>>>>>>.................................................................................................",
"............................................................................>>>>>>>>>>>>>>;;;.>>>>>>>>>>>...............................................................................................",
"............................................................................>>>>>>>>>>>>>>;;;.>>>>>>>>>>>...............................................................................................",
"...........................................................................>>>>>>>>>>>>>>>;;;.>>>>>>>>>>>>..............................................................................................",
".........................................................................>>>>>>>>>>>>>>>>>.;;.>>>>>>>>>>>>..............................................................................................",
".........................................................................>>>>>>>>>>>>>>>>>.;;.>>>>>>>>>>>>>>............................................................................................",
"........................................................................>>>>>>>>>>>>>>>>>>.;;.>>>>>>>>>>>>>>............................................................................................",
".......................................................................>>>>>>>>>>>>>>>>>>>.;;.>>>>>>>>>>>>>>>>..........................................................................................",
"......................................................................>>>>>>>>>>>>>>>>>>>>.;;.>>>>>>>>>>>>>>>>..........................................................................................",
".....................................................................>>>>>>>>>>>>>>>>>>>>>..;;>>>>>>>>>>>>>>>>>.........................................................................................",
"....................................................................>>>>>>>>>>>>>>>>>>>>>>..;;>>>>>>>>>>>>>>>>>>>.......................................................................................",
"...................................................................>>>>>>>>>>>>>>>>>>>>>>>..;;>>>>>>>>>>>>>>>>>>>.......................................................................................",
"..................................................................>>>>>>>>>>>>>>>>>>>>>>>>..;;>>>>>>>>>>>>>>>>>>>>......................................................................................",
".................................................................>>>>>>>>>>>>>>>>>>>>>>>>>..;;>>>>>>>>>>>>>>>>>>>>>.....................................................................................",
"................................................................>>>>>>>>>>>>>>>>>>>>>>>>>>..;;>>>>>>>>>>>>>>>>>>>>>.....................................................................................",
"...............................................................>>>>>>>>>>>>>>>>>>>>>>>>>>>..;;>>>>>>>>>>>>>>>>>>>>>>....................................................................................",
"...............................................................>>>>>>>>>>>>>>>>>>>>>>>>>>>..;;>>>>>>>>>>>>>>>>>>>>>>>...................................................................................",
"..............................................................>>>>>>>>>>>>>>>>>>>>>>>>>>>>..;;>>>>>>>>>>>>>>>>>>>>>>>...............****................................................................",
"..............................................................>>>>>>>>>>>>>>>>>>>>>>>>>>>>..;;>>>>>>>>>>>>>>>>>>>>>>>>............*****.................................................................",
"............................................................>>>>>>>>>>>>>>>>>>>>>>>>>>>>>>..;;;>>>>>>>>>>>>>>>>>>>>>>>>..***.....*.***..................................................................",
"............................................................>>>>>>>>>>>>>>>>>>>>>>>>>>>>>>..;;;>>>>>>>>>>>>>>>>>>>>>>>>**...*****.**....................................................................",
"...........................................................>>>>>>>>>>>>>>>>>>>>>>>>>>>>>>>..;;.>>>>>>>>>>>>>>>>>.......**.**********....................................................................",
"...........................................................>>>>>>>>>>>>>>>>>>>>>>>>>>>>>>...;;.>>>>>>>>>>>>>>>>......**.****.*****......................................................................",
"..........................................................>>>>>>>>>>>>>>>>>>>>>>>>>>>>>>>...;;..>>>>>>>>>>>>>>.......*******.****.......................................................................",
"............................................................................................;;..>>>>>>>>>>>>........*.***********.......................................................................",
"............................................................................................;;..>>>>>>>>>>>.........*************.......................................................................",
"............................................................................................;;..>>>>>>>>............*************.......................................................................",
"............................................................................................;;..>>>>>>>.............*************.......................................................................",
"............................................................................................;;..>>>>>...............*********.***.......................................................................",
"............................................................................................;;......................**.***.**.***.......................................................................",
"............................................................................................;;..................,,,,************,,......................................................................",
"............................................................................................;;...........,,,,,,,,,,,,,,,,,,,,,,,,,......................................................................",
"............................................................................................;;........,,,,,,,,,,,,,,,,,,,,,,,,,,,.......................................................................",
"........................................................................................,,,;;;,,,,,,,,,,,,,,,,,,,,,,,,,,,,,,,,,,,.......................................................................",
"............................................................................,,,,,,,,,,,,,,,,;;,,,,,,,,,,,,,,,,,,,,,,,,,,,,,,,,,,,.......................................................................",
".......................................................................,,,,,,,,,,,,,,,,,,,,,;;,,,,,,,,,,,,,,,,,,,,,,,,,,,,,,,,,,........................................................................",
"............................................................,,,,,,,,,,,,,,,,,,,,,,,,,,,,,,,,,,,,,,,,,,,,,,,,,,,,,,,,,,,,,,,,,,,,........................................................................",
"............................................................,,,,,,,,,,,,,,,,,,,,,,,,,,,,,,,,,,,,,,,,,,,,,,,,,,,,,,,,,,,,,,,,,,,.........................................................................",
"............................................................,,,,,,,,,,,,,,,,,,,,,,,,,,,,,,,,,,,,,,,,,,,,,,,,,,,,,,,,,,,,,,,,,,..........................................................................",
"............................................................,,,,,,,,,,,,,,,,,,,,,,,,,,,,,,,,,,,,,,,,,,,,,,,,,,,,,,,,,,,,,,,,,,..........................................................................",
"............................................................,,,,,,,,,,,,,,,,,,,,,,,,,,,,,,,,,,,,,,,,,,,,,,,,,,,,,,,,,,,,,,,,,,..........................................................................",
"............................................................,,,,,,,,,,,,,,,,,,,,,,,,,,,,,,,,,,,,,,,,,,,,,,,,,,,,,,,,,,,,,,,,,,..........................................................................",
"............................................................,,,,,,,,,,,,,,,,,,,,,,,,,,,,,,,,,,,,,,,,,,,,,,,,,,,,,,,,,,,,,,,,,,..........................................................................",
".............................................................,,,,,,,,,,,,,,,,,,,,,,,,,,,,,,,,,,,,,,,,,,,,,,,,,,,,,,,,,,,,,,,,...........................................................................",
"..............................................................,,,,,,,,,,,,,,,,,,,,,,,,,,,,,,,,,,,,,,,,,,,,,,,,,,,,,,,,,,,,,,,...........................................................................",
"..............................................................,,,,,,,,,,,,,,,,,,,,,,,,,,,,,,,,,,,,,,,,,,,,,,,,,,,,,,,,,,,,,,,...........................................................................",
"..............................................................,,,,,,,,,,,,,,,,,,,,,,,,,,,,,,,,,,,,,,,,,,,,,,,,,,,,,,,,,,,,,,,...........................................................................",
"...............................................................,,,,,,,,,,,,,,,,,,,,,,,,,,,,,,,,,,,,,,,,,,,,,,,,,,,,,,,,,,,,,,...........................................................................",
"...............................................................,,,,,,,,,,,,,,,,,,,,,,,,,,,,,,,,,,,,,,,,,,,,,,,,,,,,,,,,,,,,,............................................................................",
"................................................................,,,,,,,,,,,,,,,,,,,,,,,,,,,,,,,,,,,,,,,,,,,,,,,,,,,,,,,,,,,,............................................................................",
"................................................................,,,,,,,,,,,,,,,,,,,,,,,,,,,,,,,,,,,,,,,,,,,,,,,,,,,,,,,,,,,,............................................................................",
".................................................................,,,,,,,,,,,,,,,,,,,,,,,,,,,,,,,,,,,,,,,,,,,,,,,,,,,,,,,,,,,............................................................................",
"..................................................................,,,,,,,,,,,,,,,,,,,,,,,,,,,,,,,,,,,,,,,,,,,,,,,,,,,,,,,,,.............................................................................",
"..................................................................,,,,,,,,,,,,,,,,,,,,,,,,,,,,,,,,,,,,,,,,,,,,,,,,,,,,,,,,,.............................................................................",
"...................................................................,,,,,,,,,,,,,,,,,,,,,,,,,,,,,,,,,,,,,,,,,,,,,,,,,,,,,,,..............................................................................",
"....................................................................,,,,,,,,,,,,,,,,,,,,,,,,,,,,,,,,,,,,,,,,,,,,,,,,,,,,,...............................................................................",
".....................................................................,,,,,,,,,,,,,,,,,,,,,,,,,,,,,,,,,,,,,,,,,,,,,,,,,,,,...............................................................................",
".....................................................................,,,,,,,,,,,,,,,,,,,,,,,,,,,,,,,,,,,,,,,,,,,,,,,,,,,,...............................................................................",
".....................................................................,,,,,,,,,,,,,,,,,,,,,,,,,,,,,,,,,,,,,,,,,,,,,,,,,,,,...............................................................................",
"......................................................................,,,,,,,,,,,,,,,,,,,,,,,,,,,,,,,,,,,,,,,,,,,,,,,,,,,...............................................................................",
"......................................................................,,,,,,,,,,,,,,,,,,,,,,,,,,,,,,,,,,,,,,,,,,,,,,,,,,,...............................................................................",
".......................................................................,,,,,,,,,,,,,,,,,,,,,,,,,,,,,,,,,,,,,,,,,,,,,,,,,................................................................................",
"........................................................................,,,,,,,,,,'',,,,,,,,,,,,,,,,,,,,,,,,,,,,,,,,,,,,................................................................................",
"........................................................................,,,,,,,,,'',,,,,,,,,,,,,,,,,,,,,,,,,,,,,,,,,,,,,.................''..'..........................................................",
".........................................................................,,,,,,'',,,,,,,,,,,,,,,,,,,,,,,,,,,,,,,,,,,,,,,..............''''.'''..........................................................",
"..........................................................................''''',,,,,,,,,,,,,,,,,,,,,,,,,,,,,,,,,,,,,,,,.................................................................................",
"...................................................................'''''''',,,,,,,,,,,,,,,,,,,,,,,,,,,,,,,,,,,,,,,,,,,,.................................................................................",
"............................................................................,,,,,,,,,,,,,,,,,,,,,,,,,,,,,,,,,,,,,,,,,...................................................................................",
".............................................................................,,,,,,,,,,,,,,,,,,,,,,,,,,,,,,,,,,,,,,,....................................................................................",
"..............................................................................,,,,,,,,,,,,,,,,,,,,,,,,,,,,,,,,,,,,,,..'.................................................................................",
"................................................................................,,,,,,,,,,,,,,,,,,,,,,,,,,,,,,,,,,..''''.....'..........................................................................",
".........................................................................'.......,'',,,,,,,,,,,,,,,,,,,,,,,,,,,,,,.'....''''''.........'................................................................",
"...............................................................''.......''........'',,,,,,,,,,,,,,,,,,,,,,,,,,,,,..'..........'.......''................................................................",
"..............................................................'''''....'''........''....,'',,,,,,,,,,,,,,,,,,,,,''.............'.....''.'...............................................................",
".............................................................'.....''''...''....''..'..''..,,,,,,,,,,,,,,,,,,,,................''..''...''....'.........................................................",
"............................................................''..............'''''....''............,,,,,,,,,,,...................''.......'''''.........................................................",
".........................................................'''............................................................................................................................................",
"........................................................................................................................................................................................................",
"........................................................................................................................................................................................................",
"........................................................................................................................................................................................................",
"........................................................................................................................................................................................................",
"........................................................................................................................................................................................................",
"........................................................................................................................................................................................................",
"........................................................................................................................................................................................................",
"........................................................................................................................................................................................................",
"........................................................................................................................................................................................................",
"........................................................................................................................................................................................................",
"........................................................................................................................................................................................................",
"........................................................................................................................................................................................................",
"........................................................................................................................................................................................................",
"........................................................................................................................................................................................................",
"........................................................................................................................................................................................................",
"........................................................................................................................................................................................................",
"........................................................................................................................................................................................................",
"........................................................................................................................................................................................................",
"........................................................................................................................................................................................................",
"........................................................................................................................................................................................................",
"...................................................................................................%@...................................................................................................",
".................................................................................................$**#...............................+&&.................................................................",
"..................................................................................................@*-...............................@*&.................................................................",
".............................................................................................&@...-*@................................@+.................................................................",
"................................++...%....+@@...........+........+@@.@....@.+%....%@........-*%...#*+.@+......@%.......+@.......%+...@+..+@..@%....%%.+@+.....+@+....@.+%...............................",
"..............................%&*=..+**..-&@&&+.$#&@..#*........-&$=**.$&*#@**%.+=$&&+.....#**##%.**%&**+...@=$*#.....=**%.+*#..*&%&**+%&**%&**%.$**#$**&....-##*@$&*#@**%..............................",
"................................#*+.-=..#*+.%*#..&*%..*&.......-*%.+*=..+*=$$*%+*$.#*@.....+*=...+*&-.=*@..$*+.**......#*@.-*#..**..**...*&-.=*@..@*=@+**...==.@*#.+*=$$*%..............................",
"................................$*@.&%.%*#...**..**..+*#......+*#..@*#..@*#.++.=*.%*&+.....@*#...@*#..#*%.+*#.-*#......#*@+&=#..=-.+*=..@*#..#*@..#*@..**..$*@+=*@.@*#.++...............................",
"................................@*$%=..-*@...**.@*=..@*-......-*$..@*@..-*@...%*&=*#+......-*@...-*@..=*..-*=&&-.......#*@-$#*.%&+.@*#..$*$..#*...=*+..*#..&*#*=@..-*@..................................",
".................................*#-%..#*@..%*=.@*#..-*@......#*@..#*@..#*....@*#..........#*@...#*%..*#..#*@..........@*$&.#*.&@..-*@..#*@..*&...**..@*-..**......#*...................................",
".................+#+..@-...-@....&&&...-*@..$*$.#*@..=*+......#*$..=*...**....@*=...@......**....**..%*#..#*$...@......@*&%.#*--...#*@..&*+.%*#..%*=..-*@..**+..+%.**.....-@............................",
".................#*#..**@.@**....#*$...+*=.+&#..#*&#=**$%.....@*&##**$%+*=.....&*=#=#......**%+%+*&..@*#++%**##&@......@*=..#*=....**$@.**..@*=.+@*#..#*$+.-*&##&++*=....@**............................",
".................%#%..$#...#$....@&.....%#=#$...+##$.$##%......-#-+@##%%#$.....+###%.......@##$+%#$..+##$+.@##-+.......%#+..$#+....$##@%#-..+##$+$#@..@##@..-##$..%#$.....#$............................",
"..............................+..#%.....................................................................................................................................................................",
".............................@*$#-......................................................................................................................................................................",
".............................+&&$.......................................................................................................................................................................",
"........................................................................................................................................................................................................",
"........................................................................................................................................................................................................",
"........................................................................................................................................................................................................",
"........................................................................................................................................................................................................",
"........................................................................................................................................................................................................",
"........................................................................................................................................................................................................",
"........................................................................................................................................................................................................",
"........................................................................................................................................................................................................",
"........................................................................................................................................................................................................",
"........................................................................................................................................................................................................",
"........................................................................................................................................................................................................",
"........................................................................................................................................................................................................",
"........................................................................................................................................................................................................",
"........................................................................................................................................................................................................",
"........................................................................................................................................................................................................",
"........................................................................................................................................................................................................",
"........................................................................................................................................................................................................",
"........................................................................................................................................................................................................",
"........................................................................................................................................................................................................",
"........................................................................................................................................................................................................"};
